{
    "Actor": {
        "types": ["character", "_template"],
        "templates": {
            "base": {
                "hidden": [],
                "header": {
                    "contents": [],
                    "key": "custom_header"
                },
                "body": {
                    "contents": [],
                    "key": "custom_body"
                },
                "display": {
                    "width": "600",
                    "height": "600",
                    "fix_size": false,
                    "pp_width": "64",
                    "pp_height": "64"
                },
                "attributeBar": {},
                "activeEffects": {}
            }
        },
        "_template": {
            "templates": ["base"]
        },
        "character": {
            "template": null,
            "props": {},
            "templates": ["base"]
        }
    },
    "Item": {
        "types": ["equippableItem", "_equippableItemTemplate", "subTemplate"],
        "templates": {
            "equippable": {
                "hidden": [],
                "header": {
                    "contents": [],
                    "key": "custom_header"
                },
                "body": {
                    "contents": [],
                    "key": "custom_body"
                },
                "display": {
                    "width": "600",
                    "height": "600",
                    "fix_size": false,
                    "pp_width": "64",
                    "pp_height": "64"
                }
            }
        },
        "_equippableItemTemplate": {
            "templates": ["equippable"]
        },
        "equippableItem": {
            "templates": ["equippable"],
            "template": null,
            "props": {},
            "modifiers": [],
            "unique": false
        },
        "subTemplate": {
            "body": {
                "contents": []
            }
        }
    }
}
